{
  "name": "PartyCloud - Totem",
  "intents": [],
  "entities": [
    {
      "entity": "CONDIZIONI",
      "values": [
        {
          "type": "synonyms",
          "value": "SI",
          "synonyms": [
            "si",
            "certo"
          ]
        },
        {
          "type": "synonyms",
          "value": "NO",
          "synonyms": [
            "no",
            "non proprio"
          ]
        }
      ],
      "fuzzy_match": true
    },
    {
      "entity": "IMMOBILI",
      "values": [
        {
          "type": "synonyms",
          "value": "01",
          "synonyms": [
            "Appartemento in Via del Corso"
          ]
        },
        {
          "type": "synonyms",
          "value": "12",
          "synonyms": [
            "Appartemento in Piazzale Accursio"
          ]
        },
        {
          "type": "synonyms",
          "value": "05",
          "synonyms": [
            "Villino in Sempione"
          ]
        },
        {
          "type": "synonyms",
          "value": "03",
          "synonyms": [
            "Appartemento in Viale Certosa"
          ]
        },
        {
          "type": "synonyms",
          "value": "24",
          "synonyms": [
            "Attico in Via Marghera"
          ]
        },
        {
          "type": "synonyms",
          "value": "36",
          "synonyms": [
            "Trilocale in nuovo stabile - Molino Dorino"
          ]
        },
        {
          "type": "synonyms",
          "value": "07",
          "synonyms": [
            "Bilocale in stabile signorile - VillaPizzone"
          ]
        },
        {
          "type": "synonyms",
          "value": "48",
          "synonyms": [
            "Monolocale per studenti in Porta Genova"
          ]
        },
        {
          "type": "synonyms",
          "value": "09",
          "synonyms": [
            "Villa a Lecco"
          ]
        }
      ],
      "fuzzy_match": true
    },
    {
      "entity": "sys-date",
      "values": []
    }
  ],
  "language": "it",
  "metadata": {
    "api_version": {
      "major_version": "v1",
      "minor_version": "2018-09-20"
    }
  },
  "description": "",
  "dialog_nodes": [
    {
      "type": "standard",
      "title": "La casa fa schifo al cazzo",
      "output": {
        "generic": [
          {
            "values": [
              {
                "text": "D'accordo, ti mostro tutti gli altri immobili disponibili!"
              }
            ],
            "response_type": "text",
            "selection_policy": "sequential"
          },
          {
            "values": [
              {
                "text": "%%MOSTRA_ALTRI_IMMOBILI"
              }
            ],
            "response_type": "text",
            "selection_policy": "sequential"
          }
        ]
      },
      "parent": "Benvenuto",
      "metadata": {},
      "conditions": "@CONDIZIONI:NO",
      "dialog_node": "node_2_1551373131531",
      "previous_sibling": "node_1_1551373118875"
    },
    {
      "type": "standard",
      "title": "La casa è piaciuta",
      "output": {
        "generic": [
          {
            "title": "Vuoi prenotare una visita con un consulente dedicato?",
            "options": [
              {
                "label": "Certo",
                "value": {
                  "input": {
                    "text": "@CONDIZIONI:SI"
                  }
                }
              },
              {
                "label": "Non ora",
                "value": {
                  "input": {
                    "text": "@CONDIZIONI:NO"
                  }
                }
              }
            ],
            "response_type": "option"
          }
        ]
      },
      "parent": "Benvenuto",
      "metadata": {},
      "conditions": "@CONDIZIONI:SI",
      "dialog_node": "node_1_1551373118875"
    },
    {
      "type": "standard",
      "output": {
        "generic": [
          {
            "title": "Scegli ora l'orario di visita:",
            "options": [
              {
                "label": "14:00",
                "value": {
                  "input": {
                    "text": "14:00"
                  }
                }
              },
              {
                "label": "14:30",
                "value": {
                  "input": {
                    "text": "14:30"
                  }
                }
              },
              {
                "label": "15:00",
                "value": {
                  "input": {
                    "text": "15:00"
                  }
                }
              },
              {
                "label": "15:30",
                "value": {
                  "input": {
                    "text": "15:30"
                  }
                }
              }
            ],
            "response_type": "option"
          }
        ]
      },
      "parent": "node_3_1551373209451",
      "context": {
        "data": "<?input.text?>"
      },
      "metadata": {},
      "conditions": "true",
      "dialog_node": "node_6_1551374446882"
    },
    {
      "type": "standard",
      "title": "Non gli interessa dell'incontro",
      "output": {
        "generic": [
          {
            "values": [
              {
                "text": "Come preferisci, ti lascio guardare la casa e le altre disponibili!"
              }
            ],
            "response_type": "text",
            "selection_policy": "sequential"
          }
        ]
      },
      "parent": "node_1_1551373118875",
      "metadata": {},
      "dialog_node": "node_4_1551373223355",
      "previous_sibling": "node_3_1551373209451"
    },
    {
      "type": "standard",
      "title": "Vuole un incontro con il bomber",
      "output": {
        "generic": [
          {
            "title": "Ottimo, ecco la lista delle date disponibili:",
            "options": [
              {
                "label": "<? today().plusDays(1).reformatDateTime('dd MMMM') ?>",
                "value": {
                  "input": {
                    "text": "<? today().plusDays(1).reformatDateTime('dd MMMM') ?>"
                  }
                }
              },
              {
                "label": "<? today().plusDays(2).reformatDateTime('dd MMMM') ?>",
                "value": {
                  "input": {
                    "text": "<? today().plusDays(2).reformatDateTime('dd MMMM') ?>"
                  }
                }
              },
              {
                "label": "<? today().plusDays(3).reformatDateTime('dd MMMM') ?>",
                "value": {
                  "input": {
                    "text": "<? today().plusDays(3).reformatDateTime('dd MMMM') ?>"
                  }
                }
              }
            ],
            "response_type": "option"
          }
        ]
      },
      "parent": "node_1_1551373118875",
      "metadata": {},
      "conditions": "@CONDIZIONI:SI",
      "dialog_node": "node_3_1551373209451"
    },
    {
      "type": "standard",
      "output": {
        "generic": [
          {
            "values": [
              {
                "text": "Perfetto, manderò un promemoria direttamente sul tuo dispositivo!"
              }
            ],
            "response_type": "text",
            "selection_policy": "sequential"
          },
          {
            "values": [
              {
                "text": "%%SEND_APPOINTMENT_DATA"
              }
            ],
            "response_type": "text",
            "selection_policy": "sequential"
          }
        ]
      },
      "parent": "node_6_1551374446882",
      "context": {
        "ora": "<?input.text?>"
      },
      "metadata": {},
      "conditions": "true",
      "dialog_node": "node_7_1551374579346"
    },
    {
      "type": "standard",
      "output": {
        "generic": []
      },
      "parent": "node_5_1551373274763",
      "metadata": {},
      "next_step": {
        "behavior": "jump_to",
        "selector": "body",
        "dialog_node": "node_1_1551373118875"
      },
      "conditions": "@CONDIZIONI:SI",
      "dialog_node": "node_10_1551375218170",
      "previous_sibling": "node_9_1551375020249"
    },
    {
      "type": "standard",
      "output": {
        "generic": []
      },
      "parent": "node_5_1551373274763",
      "metadata": {},
      "next_step": {
        "behavior": "jump_to",
        "selector": "body",
        "dialog_node": "node_2_1551373131531"
      },
      "conditions": "@CONDIZIONI:NO",
      "dialog_node": "node_9_1551375020249"
    },
    {
      "type": "standard",
      "output": {
        "generic": [
          {
            "time": 3000,
            "typing": false,
            "response_type": "pause"
          },
          {
            "title": "Ti piace la casa che stai vedendo ora?",
            "options": [
              {
                "label": "Questa sì!",
                "value": {
                  "input": {
                    "text": "@CONDIZIONI:SI"
                  }
                }
              },
              {
                "label": "Nemmeno questa...",
                "value": {
                  "input": {
                    "text": "@CONDIZIONI:NO"
                  }
                }
              }
            ],
            "response_type": "option"
          }
        ]
      },
      "parent": "In altri casi",
      "metadata": {},
      "conditions": "@IMMOBILI",
      "dialog_node": "node_5_1551373274763"
    },
    {
      "type": "standard",
      "title": "In altri casi",
      "output": {
        "generic": []
      },
      "metadata": {},
      "next_step": {
        "behavior": "skip_user_input"
      },
      "conditions": "anything_else",
      "dialog_node": "In altri casi",
      "previous_sibling": "Benvenuto"
    },
    {
      "type": "standard",
      "title": "Benvenuto",
      "output": {
        "generic": [
          {
            "values": [
              {
                "text": "Ciao $nome!"
              }
            ],
            "response_type": "text",
            "selection_policy": "sequential"
          },
          {
            "title": "Ti piace la casa che ho trovato per te?",
            "options": [
              {
                "label": "Si",
                "value": {
                  "input": {
                    "text": "@CONDIZIONI:SI"
                  }
                }
              },
              {
                "label": "No",
                "value": {
                  "input": {
                    "text": "@CONDIZIONI:NO"
                  }
                }
              }
            ],
            "response_type": "option"
          }
        ]
      },
      "metadata": {},
      "conditions": "welcome",
      "dialog_node": "Benvenuto"
    }
  ],
  "workspace_id": "b53d0c66-9b3b-474b-94e7-73f9971f3290",
  "counterexamples": [],
  "system_settings": {
    "tooling": {
      "store_generic_responses": true
    }
  },
  "learning_opt_out": false,
  "status": "Available"
}